name="Better gender law mod"
archive="mod/better gender law mod.zip"
user_dir="Better gender law mod"
tags=
{
Mod Events Gameplay Decisions Fixes Succession = }
picture="Symbols-Venus-Mars-joined-together.png"
